Visually communicate your scientific data with R
…
Pivoting dataframes to long format with dplyr::pivot_longer()

wide_tb <- tibble(
  temp = 20:90,
  case_1 = temp * 2 + rnorm(1),
  case_2 = temp * 3 + rnorm(1),
  case_3 = temp * 4 + rnorm(1),
  case_4 = temp * 5 + rnorm(1)
)
wide_tb

# A tibble: 71 × 5
    temp case_1 case_2 case_3 case_4
   <int>  <dbl>  <dbl>  <dbl>  <dbl>
 1    20   39.5   60.1   81.2   98.8
 2    21   41.5   63.1   85.2  104. 
 3    22   43.5   66.1   89.2  109. 
 4    23   45.5   69.1   93.2  114. 
 5    24   47.5   72.1   97.2  119. 
 6    25   49.5   75.1  101.   124. 
 7    26   51.5   78.1  105.   129. 
 8    27   53.5   81.1  109.   134. 
 9    28   55.5   84.1  113.   139. 
10    29   57.5   87.1  117.   144. 
# ℹ 61 more rows

wide_tb |> 
  pivot_longer(
    cols = 2:ncol(wide_tb),
    names_to = "case",
    values_to = "value"
  )

# A tibble: 284 × 3
    temp case   value
   <int> <chr>  <dbl>
 1    20 case_1  39.5
 2    20 case_2  60.1
 3    20 case_3  81.2
 4    20 case_4  98.8
 5    21 case_1  41.5
 6    21 case_2  63.1
 7    21 case_3  85.2
 8    21 case_4 104. 
 9    22 case_1  43.5
10    22 case_2  66.1
# ℹ 274 more rows
…
